%YAML 1.1
%TAG !u! tag:unity3d.com,2011:
--- !u!1001 &8084518636738542632
PrefabInstance:
  m_ObjectHideFlags: 0
  serializedVersion: 2
  m_Modification:
    m_TransformParent: {fileID: 0}
    m_Modifications:
    - target: {fileID: 968564696200628863, guid: fd150b100dc40e9409619d191c009ed6,
        type: 3}
      propertyPath: m_RootOrder
      value: 0
      objectReference: {fileID: 0}
    - target: {fileID: 968564696200628863, guid: fd150b100dc40e9409619d191c009ed6,
        type: 3}
      propertyPath: m_LocalPosition.x
      value: 0
      objectReference: {fileID: 0}
    - target: {fileID: 968564696200628863, guid: fd150b100dc40e9409619d191c009ed6,
        type: 3}
      propertyPath: m_LocalPosition.y
      value: 0
      objectReference: {fileID: 0}
    - target: {fileID: 968564696200628863, guid: fd150b100dc40e9409619d191c009ed6,
        type: 3}
      propertyPath: m_LocalPosition.z
      value: 0
      objectReference: {fileID: 0}
    - target: {fileID: 968564696200628863, guid: fd150b100dc40e9409619d191c009ed6,
        type: 3}
      propertyPath: m_LocalRotation.w
      value: 1
      objectReference: {fileID: 0}
    - target: {fileID: 968564696200628863, guid: fd150b100dc40e9409619d191c009ed6,
        type: 3}
      propertyPath: m_LocalRotation.x
      value: 0
      objectReference: {fileID: 0}
    - target: {fileID: 968564696200628863, guid: fd150b100dc40e9409619d191c009ed6,
        type: 3}
      propertyPath: m_LocalRotation.y
      value: 0
      objectReference: {fileID: 0}
    - target: {fileID: 968564696200628863, guid: fd150b100dc40e9409619d191c009ed6,
        type: 3}
      propertyPath: m_LocalRotation.z
      value: 0
      objectReference: {fileID: 0}
    - target: {fileID: 968564696200628863, guid: fd150b100dc40e9409619d191c009ed6,
        type: 3}
      propertyPath: m_LocalEulerAnglesHint.x
      value: 0
      objectReference: {fileID: 0}
    - target: {fileID: 968564696200628863, guid: fd150b100dc40e9409619d191c009ed6,
        type: 3}
      propertyPath: m_LocalEulerAnglesHint.y
      value: 0
      objectReference: {fileID: 0}
    - target: {fileID: 968564696200628863, guid: fd150b100dc40e9409619d191c009ed6,
        type: 3}
      propertyPath: m_LocalEulerAnglesHint.z
      value: 0
      objectReference: {fileID: 0}
    - target: {fileID: 1749114476864641782, guid: fd150b100dc40e9409619d191c009ed6,
        type: 3}
      propertyPath: ShapeModule.m_Scale.x
      value: 2
      objectReference: {fileID: 0}
    - target: {fileID: 1749114476864641782, guid: fd150b100dc40e9409619d191c009ed6,
        type: 3}
      propertyPath: ShapeModule.m_Scale.y
      value: 2
      objectReference: {fileID: 0}
    - target: {fileID: 1749114476864641782, guid: fd150b100dc40e9409619d191c009ed6,
        type: 3}
      propertyPath: ShapeModule.m_Scale.z
      value: 2
      objectReference: {fileID: 0}
    - target: {fileID: 1749114476864641782, guid: fd150b100dc40e9409619d191c009ed6,
        type: 3}
      propertyPath: InitialModule.startSize.scalar
      value: 6
      objectReference: {fileID: 0}
    - target: {fileID: 1749114476864641782, guid: fd150b100dc40e9409619d191c009ed6,
        type: 3}
      propertyPath: EmissionModule.rateOverTime.scalar
      value: 10
      objectReference: {fileID: 0}
    - target: {fileID: 6811590723968447705, guid: fd150b100dc40e9409619d191c009ed6,
        type: 3}
      propertyPath: m_Name
      value: SmokeDarkLarge
      objectReference: {fileID: 0}
    m_RemovedComponents: []
  m_SourcePrefab: {fileID: 100100000, guid: fd150b100dc40e9409619d191c009ed6, type: 3}
