%YAML 1.1
%TAG !u! tag:unity3d.com,2011:
--- !u!1001 &7643113942653644313
PrefabInstance:
  m_ObjectHideFlags: 0
  serializedVersion: 2
  m_Modification:
    m_TransformParent: {fileID: 0}
    m_Modifications:
    - target: {fileID: -6545359131544059220, guid: 655a2e5358a45354dbe19dd83d65981e,
        type: 3}
      propertyPath: Priority
      value: 128
      objectReference: {fileID: 0}
    - target: {fileID: -6545359131544059220, guid: 655a2e5358a45354dbe19dd83d65981e,
        type: 3}
      propertyPath: m_Volume
      value: 0.15
      objectReference: {fileID: 0}
    - target: {fileID: -6545359131544059220, guid: 655a2e5358a45354dbe19dd83d65981e,
        type: 3}
      propertyPath: rolloffMode
      value: 0
      objectReference: {fileID: 0}
    - target: {fileID: -6545359131544059220, guid: 655a2e5358a45354dbe19dd83d65981e,
        type: 3}
      propertyPath: OutputAudioMixerGroup
      value: 
      objectReference: {fileID: 0}
    - target: {fileID: -6545359131544059220, guid: 655a2e5358a45354dbe19dd83d65981e,
        type: 3}
      propertyPath: spreadCustomCurve.m_Curve.Array.data[0].value
      value: 0
      objectReference: {fileID: 0}
    - target: {fileID: 6312413619703213020, guid: 655a2e5358a45354dbe19dd83d65981e,
        type: 3}
      propertyPath: m_Name
      value: bullet_tank_explode
      objectReference: {fileID: 0}
    - target: {fileID: 7112555159425128832, guid: 655a2e5358a45354dbe19dd83d65981e,
        type: 3}
      propertyPath: m_RootOrder
      value: 0
      objectReference: {fileID: 0}
    - target: {fileID: 7112555159425128832, guid: 655a2e5358a45354dbe19dd83d65981e,
        type: 3}
      propertyPath: m_LocalPosition.x
      value: 0
      objectReference: {fileID: 0}
    - target: {fileID: 7112555159425128832, guid: 655a2e5358a45354dbe19dd83d65981e,
        type: 3}
      propertyPath: m_LocalPosition.y
      value: 0
      objectReference: {fileID: 0}
    - target: {fileID: 7112555159425128832, guid: 655a2e5358a45354dbe19dd83d65981e,
        type: 3}
      propertyPath: m_LocalPosition.z
      value: 0
      objectReference: {fileID: 0}
    - target: {fileID: 7112555159425128832, guid: 655a2e5358a45354dbe19dd83d65981e,
        type: 3}
      propertyPath: m_LocalRotation.w
      value: 1
      objectReference: {fileID: 0}
    - target: {fileID: 7112555159425128832, guid: 655a2e5358a45354dbe19dd83d65981e,
        type: 3}
      propertyPath: m_LocalRotation.x
      value: 0
      objectReference: {fileID: 0}
    - target: {fileID: 7112555159425128832, guid: 655a2e5358a45354dbe19dd83d65981e,
        type: 3}
      propertyPath: m_LocalRotation.y
      value: 0
      objectReference: {fileID: 0}
    - target: {fileID: 7112555159425128832, guid: 655a2e5358a45354dbe19dd83d65981e,
        type: 3}
      propertyPath: m_LocalRotation.z
      value: 0
      objectReference: {fileID: 0}
    - target: {fileID: 7112555159425128832, guid: 655a2e5358a45354dbe19dd83d65981e,
        type: 3}
      propertyPath: m_LocalEulerAnglesHint.x
      value: 0
      objectReference: {fileID: 0}
    - target: {fileID: 7112555159425128832, guid: 655a2e5358a45354dbe19dd83d65981e,
        type: 3}
      propertyPath: m_LocalEulerAnglesHint.y
      value: 0
      objectReference: {fileID: 0}
    - target: {fileID: 7112555159425128832, guid: 655a2e5358a45354dbe19dd83d65981e,
        type: 3}
      propertyPath: m_LocalEulerAnglesHint.z
      value: 0
      objectReference: {fileID: 0}
    m_RemovedComponents: []
  m_SourcePrefab: {fileID: 100100000, guid: 655a2e5358a45354dbe19dd83d65981e, type: 3}
